<?xml version="1.0" encoding="utf-8"?>
<!-- Generator: Adobe Illustrator 16.0.0, SVG Export Plug-In . SVG Version: 6.00 Build 0)  -->
<!DOCTYPE svg PUBLIC "-//W3C//DTD SVG 1.1//EN" "http://www.w3.org/Graphics/SVG/1.1/DTD/svg11.dtd">
<svg version="1.1" id="Layer_1" xmlns="http://www.w3.org/2000/svg" xmlns:xlink="http://www.w3.org/1999/xlink" x="0px" y="0px"
	 width="501.594px" height="85.04px" viewBox="0 0 501.594 85.04" enable-background="new 0 0 501.594 85.04" xml:space="preserve">
<g id="SvgjsG2302" transform="translate(-1.8300000429153442,-99.38200378417969)" xmlns:name="main_text">
	<path fill="#14AA8D" d="M115.686,160.723v-30.965l12.615,23.771h3.164l11.696-23.348v30.542h3.505v-38.234h-3.505l-13.329,26.998
		l-14.146-26.998h-3.443v38.234H115.686z M160.366,161.316c3.712,0,6.552-2.595,8.087-4.466c0.206,1.902,0.503,3.873,0.503,3.873
		h2.66v-25.443h-3.319v18.127c-2.295,3.004-4.705,5.14-7.725,5.14c-3.712,0-5.167-4.044-5.167-8.749v-14.518h-3.281v14.518
		C152.125,156.736,154.203,161.316,160.366,161.316z M175.928,138.268h13.828l-14.313,19.513v2.942h18.468v-2.995h-14.477
		l14.312-19.522v-2.926h-17.817V138.268z M198.057,135.279v25.443h3.339v-25.443H198.057z M201.727,129.096
		c0-1.033-0.878-1.902-1.964-1.902c-1.118,0-2.03,0.869-2.03,1.902c0,1.085,0.912,1.902,2.03,1.902
		C200.849,130.998,201.727,130.181,201.727,129.096z M215.811,145.931l9.667-10.651h-4.082l-10.887,12.005v-24.796h-3.321v38.234
		h3.321v-8.91l3.126-3.433l9.009,12.343h4.041L215.811,145.931z M239.68,134.949c-4.738,0-8.95,2.232-8.95,2.232l0.706,2.017
		c0,0,3.99-1.468,7.423-1.468c4.763,0,6.508,1.685,6.508,7.98v0.312c-12.784,0.177-16.217,3.774-16.217,8.479
		c0,3.981,2.996,6.483,7.594,6.483c3.814,0,7.099-2.389,8.785-4.136c0.164,1.902,0.493,3.873,0.493,3.873h2.67v-15.012
		C248.693,137.399,245.53,134.949,239.68,134.949z M236.956,158.214c-2.409,0-4.484-1.095-4.484-3.929
		c0-4.22,4.869-5.521,12.895-5.584v4.768C242.903,156.41,239.964,158.214,236.956,158.214z M266.942,125.808h20.765l-21.531,31.59
		v3.325h25.953v-3.325h-21.741l21.521-31.59v-3.319h-24.966V125.808z M305.659,134.949c-4.736,0-8.937,2.232-8.937,2.232
		l0.693,2.017c0,0,4.01-1.468,7.427-1.468c4.764,0,6.505,1.685,6.505,7.98v0.312c-12.777,0.177-16.216,3.774-16.216,8.479
		c0,3.981,2.999,6.483,7.593,6.483c3.832,0,7.102-2.389,8.798-4.136c0.163,1.902,0.478,3.873,0.478,3.873h2.675v-15.012
		C314.675,137.399,311.522,134.949,305.659,134.949z M302.938,158.214c-2.408,0-4.47-1.095-4.47-3.929
		c0-4.22,4.862-5.521,12.879-5.584v4.768C308.885,156.41,305.949,158.214,302.938,158.214z M333.805,122.488v38.234h3.619v-15.609
		h6.368c9.834,0,14.771-4.156,14.771-11.488c0-7.517-5.328-11.137-14.771-11.137H333.805z M354.787,133.625
		c0,7.177-5.422,8.139-10.995,8.139h-6.368v-15.956h6.368C349.159,125.808,354.787,126.532,354.787,133.625z M367.35,139.684
		c-0.716,1.056-1.086,2.296-1.086,2.296v-0.537c0-2.089-0.663-6.163-0.663-6.163h-2.688v25.443h3.352v-14.792
		c0,0,1.354-7.425,10.752-7.425v-3.557C371.495,134.949,368.66,137.668,367.35,139.684z M390.676,134.618
		c-5.8,0-11.467,4.528-11.467,13.391c0,8.778,5.508,13.307,11.312,13.307c5.79,0,11.458-4.528,11.458-13.307
		C401.978,139.147,396.467,134.618,390.676,134.618z M390.52,158.421c-4.436,0-7.883-3.319-7.883-10.412
		c0-7.177,4.043-10.496,8.038-10.496c4.189,0,7.864,3.319,7.864,10.496C398.54,155.102,395.1,158.421,390.52,158.421z
		 M422.512,136.304c0,0-3.654-1.686-7.917-1.686c-4.914,0-9.235,2.016-9.235,7.146c0,4.704,4.539,6.245,8.696,7.33
		c4.144,1.034,6.227,1.902,6.227,4.644c0,2.673-1.479,4.684-6.947,4.684c-3.706,0-7.265-1.302-7.265-1.302l-0.822,1.81
		c0,0,2.905,2.387,9.077,2.387c4.969,0,9.176-2.501,9.176-7.361c0-5.407-3.488-6.515-8.741-8.147
		c-3.269-0.962-6.175-1.624-6.175-4.198c0-3.495,3.174-4.21,6.729-4.21c3.441,0,6.545,0.777,6.545,0.777L422.512,136.304z
		 M431.256,148.433v-25.944h-3.325v25.944c0,5.738-0.221,12.29,5.237,12.883l0.383-2.016
		C431.201,157.728,431.256,154.348,431.256,148.433z M447.642,134.949c-4.749,0-8.958,2.232-8.958,2.232l0.724,2.017
		c0,0,3.976-1.468,7.415-1.468c4.758,0,6.505,1.685,6.505,7.98v0.312c-12.791,0.177-16.217,3.774-16.217,8.479
		c0,3.981,2.996,6.483,7.594,6.483c3.815,0,7.101-2.389,8.782-4.136c0.166,1.902,0.493,3.873,0.493,3.873h2.687v-15.012
		C456.666,137.399,453.486,134.949,447.642,134.949z M444.909,158.214c-2.399,0-4.476-1.095-4.476-3.929
		c0-4.22,4.865-5.521,12.894-5.584v4.768C450.865,156.41,447.925,158.214,444.909,158.214z M462.781,135.279h-3.383l9.936,25.443
		h2.789l9.563-25.443h-3.405l-7.535,20.04L462.781,135.279z M495.336,158.421c-4.043,0-8.686-2.926-8.686-10.098l16.773-0.269
		c0-6.229-1.805-13.437-9.013-13.437c-5.64,0-11.1,5.065-11.1,13.659c0,8.304,4.759,13.038,11.426,13.038
		c4.911,0,8.24-2.232,8.24-2.232l-0.704-1.903C502.273,157.18,499.648,158.421,495.336,158.421z M494.411,137.36
		c3.717,0,5.567,3.804,5.666,7.909c-8.562,0.206-12.276,0.754-13.319,0.931C487.473,140.563,490.963,137.36,494.411,137.36z"/>
</g>
<g id="SvgjsG2303" transform="translate(81.10004425048828,0) scale(1)" xmlns:name="symbol_mainfill">
	<g>
		<path fill="#14AA8D" d="M-41.04,0c1.639,0,3.28,0,4.919,0c7.091,0.547,12.793,2.482,17.853,5.062
			c-8.118,8.468-16.412,16.761-24.88,24.878c-2.524-3.271-5.284-5.896-11.244-5.34c-5.826,0.543-10.213,5.774-10.263,11.525
			c-0.077,9.441,10.749,14.82,18.695,9.559c2.088-1.381,4.005-3.723,5.903-5.623c5.663-5.663,11.371-11.458,17.008-17.148
			c4.653,4.19,9.105,8.966,13.775,13.635c0.487,0.489,1.96,1.63,1.967,1.827c0.018,0.428-3.036,3.179-3.374,3.514
			c-3.432,3.432-6.914,6.942-10.402,10.122c-2.419-5.088-10.687-6.894-16.023-3.655c-3.261,1.979-5.346,5.154-5.482,9.559
			c-0.187,6.06,4.129,11.328,10.122,11.946c8.306,0.858,11.681-5.076,15.742-9.136c6.839-6.84,13.943-13.97,20.664-20.381
			C4.202,54.284-0.638,64.339-7.447,71.407c-6.818,7.077-15.887,12.74-28.675,13.633c-1.64,0-3.279,0-4.919,0
			c-11.926-1.047-21.115-5.794-27.689-12.369c-6.575-6.573-11.327-15.758-12.37-27.69c0-1.641,0-3.28,0-4.921
			c0.691-11.497,6.108-21.348,12.51-27.688C-61.809,5.651-52.754,0.927-41.04,0z"/>
	</g>
</g>
</svg>
